%YAML 1.1
%TAG !u! tag:unity3d.com,2011:
--- !u!114 &11400000
MonoBehaviour:
  m_ObjectHideFlags: 0
  m_CorrespondingSourceObject: {fileID: 0}
  m_PrefabInstance: {fileID: 0}
  m_PrefabAsset: {fileID: 0}
  m_GameObject: {fileID: 0}
  m_Enabled: 1
  m_EditorHideFlags: 0
  m_Script: {fileID: 11500000, guid: 0e44d3c212dbfcc438fd7c048e8b72e5, type: 3}
  m_Name: ObjectDataList
  m_EditorClassIdentifier: 
  m_ObjectDatas:
  - m_ObjectCode: 000
    m_ObjectData:
      m_ObjectName: Cube
      m_ObjectIcon: {fileID: 21300000, guid: d13e8e4ec3271984c90a2056ff0b3bb5, type: 3}
      m_DefType: 0
      m_ObjectType: 1
  - m_ObjectCode: 001
    m_ObjectData:
      m_ObjectName: Ghost
      m_ObjectIcon: {fileID: 21300000, guid: 2437b502c15344449af407311998d695, type: 3}
      m_DefType: 0
      m_ObjectType: 1
  - m_ObjectCode: 002
    m_ObjectData:
      m_ObjectName: Cabsule
      m_ObjectIcon: {fileID: 0}
      m_DefType: 0
      m_ObjectType: 1
  - m_ObjectCode: 003
    m_ObjectData:
      m_ObjectName: Sphere
      m_ObjectIcon: {fileID: 21300000, guid: 42c1a1751ab3b89468de69e4fa251fae, type: 3}
      m_DefType: 0
      m_ObjectType: 1
